{
  "project_info": {
    "project_number": "147958506106",
    "firebase_url": "https://myproject-b3204.firebaseio.com",
    "project_id": "myproject-b3204",
    "storage_bucket": "myproject-b3204.appspot.com"
  },
  "client": [
    {
      "client_info": {
        "mobilesdk_app_id": "1:147958506106:android:3029eae9b137dbb1db11c3",
        "android_client_info": {
          "package_name": "com.genulo.maknum"
        }
      },
      "oauth_client": [
        {
          "client_id": "147958506106-8k7tedtfq66vsl329k0bc7sebimk1q01.apps.googleusercontent.com",
          "client_type": 3
        }
      ],
      "api_key": [
        {
          "current_key": "AIzaSyAJgKhSfDxWB8OMcRLgcOdt6IGKFktqanE"
        }
      ],
      "services": {
        "appinvite_service": {
          "other_platform_oauth_client": [
            {
              "client_id": "147958506106-8k7tedtfq66vsl329k0bc7sebimk1q01.apps.googleusercontent.com",
              "client_type": 3
            }
          ]
        }
      }
    }
  ],
  "configuration_version": "1"
}